﻿1>------ Build started: Project: task04, Configuration: Debug Any CPU ------
1>  task04 -> D:\Users\reece\Desktop\Projects\task04\task04\bin\Debug\task04.exe
========== Build: 1 succeeded, 0 failed, 0 up-to-date, 0 skipped ==========
